[gd_scene load_steps=21 format=1]

[ext_resource path="res://scenes/end/end.gd" type="Script" id=1]
[ext_resource path="res://prefab/gui/power_bar.tscn" type="PackedScene" id=2]
[ext_resource path="res://prefab/pcr/pcr.tscn" type="PackedScene" id=3]
[ext_resource path="res://prefab/main_camera/main_camera.tscn" type="PackedScene" id=4]
[ext_resource path="res://assets/tileset/tls_map_01.tres" type="TileSet" id=5]
[ext_resource path="res://prefab/gui/GUI.tscn" type="PackedScene" id=6]
[ext_resource path="res://prefab/door/door.tscn" type="PackedScene" id=7]
[ext_resource path="res://prefab/bone_sensitive/bone_target.tscn" type="PackedScene" id=8]
[ext_resource path="res://prefab/teleporter/teleporter.tscn" type="PackedScene" id=9]
[ext_resource path="res://prefab/imp/imp.tscn" type="PackedScene" id=10]
[ext_resource path="res://assets/textures/target.png" type="Texture" id=11]
[ext_resource path="res://assets/textures/key_up.png" type="Texture" id=12]
[ext_resource path="res://assets/textures/left_click.png" type="Texture" id=13]

[sub_resource type="Animation" id=10]

resource/name = "enter"
length = 1.0
loop = false
step = 0.1
tracks/0/type = "value"
tracks/0/path = NodePath("../../canvasmodulate:color")
tracks/0/interp = 1
tracks/0/imported = false
tracks/0/keys = {
"times": FloatArray( 0 ),
"transitions": FloatArray( 1 ),
"update": 0,
"values": [ Color( 0, 0, 0, 1 ) ]
}

[sub_resource type="Animation" id=9]

resource/name = "exit"
length = 3.0
loop = false
step = 0.1
tracks/0/type = "value"
tracks/0/path = NodePath("../../canvasmodulate:color")
tracks/0/interp = 1
tracks/0/imported = false
tracks/0/keys = {
"times": FloatArray( 0, 3 ),
"transitions": FloatArray( 1, 1 ),
"update": 0,
"values": [ Color( 1, 1, 1, 1 ), Color( 0, 0, 0, 1 ) ]
}

[sub_resource type="Animation" id=8]

resource/name = "reveal"
length = 3.0
loop = false
step = 0.1
tracks/0/type = "value"
tracks/0/path = NodePath("../../canvasmodulate:color")
tracks/0/interp = 1
tracks/0/imported = false
tracks/0/keys = {
"times": FloatArray( 0, 1 ),
"transitions": FloatArray( 1, 1 ),
"update": 0,
"values": [ Color( 0, 0, 0, 1 ), Color( 1, 1, 1, 1 ) ]
}
tracks/1/type = "value"
tracks/1/path = NodePath("../../imp:transform/pos")
tracks/1/interp = 1
tracks/1/imported = false
tracks/1/keys = {
"times": FloatArray( 0, 1, 3 ),
"transitions": FloatArray( 1, 1, 1 ),
"update": 0,
"values": [ Vector2( -466, -255 ), Vector2( -466, -255 ), Vector2( -8, -59 ) ]
}

[sub_resource type="RectangleShape2D" id=4]

custom_solver_bias = 0.0
extents = Vector2( 10, 95 )

[sub_resource type="RectangleShape2D" id=5]

custom_solver_bias = 0.0
extents = Vector2( 10, 61 )

[sub_resource type="RectangleShape2D" id=7]

custom_solver_bias = 0.0
extents = Vector2( 10, 99 )

[sub_resource type="RectangleShape2D" id=6]

custom_solver_bias = 0.0
extents = Vector2( 10, 98 )

[node name="end" type="Node2D"]

script/script = ExtResource( 1 )

[node name="canvasmodulate" type="CanvasModulate" parent="."]

color = Color( 0, 0, 0, 1 )

[node name="power_bar" parent="." instance=ExtResource( 2 )]

[node name="pcr" parent="." instance=ExtResource( 3 )]

transform/pos = Vector2( 28, -169 )

[node name="main_camera" parent="." instance=ExtResource( 4 )]

[node name="map" type="TileMap" parent="."]

transform/pos = Vector2( -1, 0 )
mode = 0
tile_set = ExtResource( 5 )
cell/size = Vector2( 32, 32 )
cell/quadrant_size = 16
cell/custom_transform = Matrix32( 1, 0, 0, 1, 0, 0 )
cell/half_offset = 2
cell/tile_origin = 0
cell/y_sort = false
collision/use_kinematic = false
collision/friction = 1.0
collision/bounce = 0.0
collision/layers = 1
collision/mask = 1
occluder/light_mask = 1
tile_data = IntArray( -458713, 3, -458712, 1, -458711, 1, -458710, 1, -458709, 1, -458708, 1, -458707, 4, -327683, 15, -327682, 4, -393178, 3, -393177, 15, -393176, 15, -393175, 15, -393174, 15, -393173, 15, -393172, 15, -393171, 15, -262147, 15, -262146, 15, -327642, 15, -327641, 15, -327640, 15, -327639, 15, -327638, 15, -327637, 15, -327636, 15, -327635, 15, -196611, 15, -196610, 15, -262106, 15, -262105, 15, -262104, 15, -262103, 15, -262102, 15, -262101, 15, -262100, 15, -262099, 15, -131075, 15, -131074, 15, -196567, 13, -196566, 15, -196565, 15, -196564, 15, -196563, 15, -65539, 15, -65538, 15, -131055, 1, -131054, 4, -131030, 15, -131029, 15, -131028, 15, -131027, 15, -3, 15, -2, 15, -1, 4, -65526, 3, -65525, 1, -65524, 4, -65522, 0, -65521, 1, -65519, 15, -65518, 15, -65510, 3, -65509, 2, -65506, 1, -65505, 1, -65504, 1, -65503, 1, -65502, 1, -65501, 1, -65500, 1, -65499, 1, -65498, 1, -65497, 1, -65496, 1, -65495, 15, -65494, 15, -65493, 15, -65492, 15, -65491, 15, 65533, 15, 65534, 15, 65535, 15, 0, 1, 1, 1, 2, 1, 3, 1, 4, 1, 5, 1, 6, 1, 7, 1, 8, 1, 9, 1, 10, 15, 11, 15, 12, 15, 13, 4, 15, 13, 16, 1, 17, 15, 18, 15, 19, 1, 20, 1, 21, 4, 25, 3, 26, 15, 30, 15, 31, 15, 32, 15, 33, 15, 34, 15, 35, 15, 36, 15, 37, 15, 38, 15, 39, 15, 40, 15, 41, 15, 42, 15, 43, 15, 44, 15, 45, 15, 131070, 13, 131071, 15, 65536, 15, 65537, 15, 65538, 15, 65539, 15, 65540, 15, 65541, 15, 65542, 15, 65543, 15, 65544, 15, 65545, 15, 65546, 15, 65547, 15, 65548, 15, 65549, 15, 65550, 4, 65552, 11, 65553, 11, 65554, 11, 65555, 11, 65556, 11, 65557, 13, 65558, 2, 65561, 15, 65562, 15, 65563, 1, 65564, 14, 65566, 15, 65567, 15, 65568, 15, 65569, 15, 65570, 15, 65571, 15, 65572, 15, 65573, 15, 65574, 15, 65575, 15, 65576, 15, 65577, 15, 65578, 15, 65579, 15, 65580, 15, 65581, 15, 196607, 13, 131072, 15, 131073, 15, 131074, 15, 131075, 15, 131076, 15, 131077, 15, 131078, 15, 131079, 15, 131080, 15, 131081, 15, 131082, 15, 131083, 15, 131084, 15, 131085, 15, 131086, 15, 131087, 4, 131097, 15, 131098, 15, 131099, 15, 131102, 15, 131103, 15, 131104, 15, 131105, 15, 131106, 15, 131107, 15, 131108, 15, 131109, 15, 131110, 15, 131111, 15, 131112, 15, 131113, 15, 131114, 15, 131115, 15, 131116, 15, 131117, 15, 196608, 13, 196609, 15, 196610, 15, 196611, 15, 196612, 15, 196613, 15, 196614, 15, 196615, 15, 196616, 15, 196617, 15, 196618, 15, 196619, 15, 196620, 15, 196621, 15, 196622, 15, 196623, 15, 196624, 1, 196625, 1, 196626, 1, 196627, 1, 196628, 1, 196629, 1, 196630, 1, 196631, 1, 196632, 1, 196633, 15, 196634, 15, 196635, 15, 196638, 15, 196639, 15, 196640, 15, 196641, 15, 196642, 15, 196643, 15, 196644, 15, 196645, 15, 196646, 15, 196647, 15, 196648, 15, 196649, 15, 196650, 15, 196651, 15, 196652, 15, 196653, 15, 262145, 13, 262146, 15, 262147, 15, 262148, 15, 262149, 15, 262150, 15, 262151, 15, 262152, 15, 262153, 15, 262154, 15, 262155, 15, 262156, 15, 262157, 15, 262158, 15, 262159, 15, 262160, 15, 262161, 15, 262162, 15, 262163, 15, 262164, 15, 262165, 15, 262166, 15, 262167, 15, 262168, 15, 262169, 15, 262170, 15, 262171, 15, 262174, 15, 262175, 15, 262176, 15, 262177, 15, 262178, 15, 262179, 15, 262180, 15, 262181, 15, 262182, 15, 262183, 15, 262184, 15, 262185, 15, 262186, 15, 262187, 15, 262188, 15, 262189, 15, 327682, 13, 327683, 15, 327684, 15, 327685, 15, 327686, 15, 327687, 15, 327688, 15, 327689, 15, 327690, 15, 327691, 15, 327692, 15, 327693, 15, 327694, 15, 327695, 15, 327696, 15, 327697, 15, 327698, 15, 327699, 15, 327700, 15, 327701, 15, 327702, 15, 327703, 15, 327704, 15, 327705, 15, 327706, 15, 327707, 15, 327710, 15, 327711, 15, 327712, 15, 327713, 15, 327714, 15, 327715, 15, 327716, 15, 327717, 15, 327718, 15, 327719, 15, 327720, 15, 327721, 15, 327722, 15, 327723, 15, 327724, 15, 327725, 15 )

[node name="GUI" parent="." instance=ExtResource( 6 )]

[node name="animator" parent="GUI/chatbox"]

anims/enter = SubResource( 10 )
anims/exit = SubResource( 9 )
anims/reveal = SubResource( 8 )

[node name="scripting" type="Node2D" parent="."]

[node name="jump_tuto" type="Area2D" parent="scripting"]

transform/pos = Vector2( 366, -63 )
input/pickable = true
shapes/0/shape = SubResource( 4 )
shapes/0/transform = Matrix32( 1, 0, 0, 1, 0, 0 )
shapes/0/trigger = false
gravity_vec = Vector2( 0, 1 )
gravity = 98.0
linear_damp = 0.1
angular_damp = 1.0

[node name="shape" type="CollisionShape2D" parent="scripting/jump_tuto"]

shape = SubResource( 4 )
trigger = false
_update_shape_index = 0

[node name="jump_tuto2" type="Area2D" parent="scripting"]

transform/pos = Vector2( 487, -51 )
input/pickable = true
shapes/0/shape = SubResource( 5 )
shapes/0/transform = Matrix32( 1, 0, 0, 1, 8, -18 )
shapes/0/trigger = false
shapes/1/shape = SubResource( 7 )
shapes/1/transform = Matrix32( 1, 0, 0, 1, 324, 36 )
shapes/1/trigger = false
gravity_vec = Vector2( 0, 1 )
gravity = 98.0
linear_damp = 0.1
angular_damp = 1.0

[node name="shape" type="CollisionShape2D" parent="scripting/jump_tuto2"]

transform/pos = Vector2( 8, -18 )
shape = SubResource( 5 )
trigger = false
_update_shape_index = 0

[node name="CollisionShape2D" type="CollisionShape2D" parent="scripting/jump_tuto2"]

transform/pos = Vector2( 324, 36 )
shape = SubResource( 7 )
trigger = false
_update_shape_index = 1

[node name="throw_tuto" type="Area2D" parent="scripting"]

transform/pos = Vector2( 727, -55 )
input/pickable = true
shapes/0/shape = SubResource( 4 )
shapes/0/transform = Matrix32( 1, 0, 0, 1, 0, 0 )
shapes/0/trigger = false
shapes/1/shape = SubResource( 6 )
shapes/1/transform = Matrix32( 1, 0, 0, 1, 89, 39 )
shapes/1/trigger = false
gravity_vec = Vector2( 0, 1 )
gravity = 98.0
linear_damp = 0.1
angular_damp = 1.0

[node name="shape" type="CollisionShape2D" parent="scripting/throw_tuto"]

shape = SubResource( 4 )
trigger = false
_update_shape_index = 0

[node name="CollisionShape2D" type="CollisionShape2D" parent="scripting/throw_tuto"]

transform/pos = Vector2( 89, 39 )
shape = SubResource( 6 )
trigger = false
_update_shape_index = 1

[node name="joke_arm" type="Area2D" parent="scripting"]

transform/pos = Vector2( 910, -46 )
input/pickable = true
shapes/0/shape = SubResource( 4 )
shapes/0/transform = Matrix32( 1, 0, 0, 1, -31, -2 )
shapes/0/trigger = false
gravity_vec = Vector2( 0, 1 )
gravity = 98.0
linear_damp = 0.1
angular_damp = 1.0

[node name="shape" type="CollisionShape2D" parent="scripting/joke_arm"]

transform/pos = Vector2( -31, -2 )
shape = SubResource( 4 )
trigger = false
_update_shape_index = 0

[node name="leg_shot" type="Area2D" parent="scripting"]

transform/pos = Vector2( 1072, -44 )
input/pickable = true
shapes/0/shape = SubResource( 4 )
shapes/0/transform = Matrix32( 1, 0, 0, 1, 0, 0 )
shapes/0/trigger = false
gravity_vec = Vector2( 0, 1 )
gravity = 98.0
linear_damp = 0.1
angular_damp = 1.0

[node name="shape" type="CollisionShape2D" parent="scripting/leg_shot"]

shape = SubResource( 4 )
trigger = false
_update_shape_index = 0

[node name="door" parent="." instance=ExtResource( 7 )]

transform/pos = Vector2( 1263, -65 )
LOCK_NUMBER = 2

[node name="bone_target" parent="." instance=ExtResource( 8 )]

transform/pos = Vector2( 1199, -145 )

[node name="bone_target1" parent="." instance=ExtResource( 8 )]

transform/pos = Vector2( 880, 16 )

[node name="teleporter" parent="." instance=ExtResource( 9 )]

transform/pos = Vector2( 1307, -46 )

[node name="imp" parent="." instance=ExtResource( 10 )]

transform/pos = Vector2( -466, -255 )
MARGIN_DISTANCE = 50

[node name="spawn_1" type="Position2D" parent="."]

transform/pos = Vector2( 1, -152 )

[node name="target_1" type="Sprite" parent="."]

transform/pos = Vector2( 804, 47 )
texture = ExtResource( 11 )

[node name="target_3" type="Sprite" parent="."]

transform/pos = Vector2( 964, 29 )
texture = ExtResource( 11 )

[node name="target_2" type="Sprite" parent="."]

visibility/visible = false
visibility/self_opacity = 0.0163498
transform/pos = Vector2( 416, -67 )
transform/scale = Vector2( 0.4, 0.4 )
z/z = -1
texture = ExtResource( 12 )

[node name="left_click" type="Sprite" parent="."]

visibility/self_opacity = 0.0
transform/pos = Vector2( 775, -23 )
transform/scale = Vector2( 0.4, 0.4 )
texture = ExtResource( 13 )
hframes = 2


[editable path="GUI"]
[editable path="GUI/chatbox"]
