[gd_scene load_steps=2 format=1]

[ext_resource path="res://prefab/pcr/FSM/transitions/idle_to_walk/idle_to_walk.gd" type="Script" id=1]

[node name="idle_to_walk" type="Node"]

script/script = ExtResource( 1 )
path2SourceStates = [ NodePath("") ]
path2TargetState = null
intervalBetweenChecks = -1.0


