[gd_scene load_steps=2 format=1]

[ext_resource path="res://prefab/pcr/FSM/transitions/throw_to_idle/throw_to_idle.gd" type="Script" id=1]

[node name="throw_to_idle" type="Node"]

script/script = ExtResource( 1 )
path2SourceStates = [ NodePath("") ]
path2TargetState = null
intervalBetweenChecks = -1.0


