[gd_scene load_steps=2 format=1]

[ext_resource path="res://prefab/gui/tr_button/tr_button.gd" type="Script" id=1]

[node name="tr_button" type="Button"]

focus/ignore_mouse = false
focus/stop_mouse = true
size_flags/horizontal = 2
size_flags/vertical = 2
margin/left = 0.0
margin/top = 0.0
margin/right = 12.0
margin/bottom = 20.0
toggle_mode = false
enabled_focus_mode = 2
shortcut = null
flat = false
script/script = ExtResource( 1 )
TR_KEY = "PLAY"
TR_TOOLTIP = "TOOLTIP"


